20190327_MakeFamAndCovariateFiles
…
row.names(PhenotypesToOutput) <- colnames(CountTable)

Output.df <- EmptyFamFile %>%
  merge(PhenotypesToOutput, all.x=T, by.x="IID", by.y=0) %>% as.tibble()

Warning: `as.tibble()` is deprecated, use `as_tibble()` (but mind the new semantics).
This warning is displayed once per session.

Output.df

# A tibble: 39 x 18,287
   IID   FID   Father Mother    SX ENSPTRT00000000… ENSPTRT00000000…
   <chr> <chr>  <int>  <int> <int>            <dbl>            <dbl>
 1 295   Pan_…      0      0     0           -0.503            0.709
 2 317   Pan_…      0      0     0           -0.933            0.598
 3 338   Pan_…      0      0     0           -1.08             1.37 
 4 389   Pan_…      0      0     0           -0.779            0.648
 5 438   Pan_…      0      0     0           -0.871            0.778
 6 456   Pan_…      0      0     0           -0.516            0.791
 7 462   Pan_…      0      0     0           -0.674            1.06 
 8 476   Pan_…      0      0     0           -1.09             0.668
 9 495   Pan_…      0      0     0            0.221            0.852
10 4x00… Pan_…      0      0     0           -0.797            1.36 
# … with 29 more rows, and 18,280 more variables:
#   ENSPTRT00000000050.4 <dbl>, ENSPTRT00000000057.4 <dbl>,
#   ENSPTRT00000000060.3 <dbl>, ENSPTRT00000000069.4 <dbl>,
#   ENSPTRT00000000071.5 <dbl>, ENSPTRT00000000083.6 <dbl>,
#   ENSPTRT00000000093.4 <dbl>, ENSPTRT00000000100.4 <dbl>,
#   ENSPTRT00000000105.6 <dbl>, ENSPTRT00000000106.3 <dbl>,
#   ENSPTRT00000000114.4 <dbl>, ENSPTRT00000000116.4 <dbl>,
#   ENSPTRT00000000118.6 <dbl>, ENSPTRT00000000144.6 <dbl>,
#   ENSPTRT00000000145.7 <dbl>, ENSPTRT00000000149.3 <dbl>,
…
